{
    "title": "Clients",
    "subtitle": "We're proud to work with...",
    "meta": {
        "title": "IE Brand",
        "description": "We help charity, health and education clients to connect with their audiences.",
        "image": "/logo.png"
    },
    "clients": [
        {
            "id": 1,
            "logo": "https:\/\/source.unsplash.com\/featured\/150x150",
            "name": "Client name 1",
            "description": "<!-- Coming from CK Editor -->\n<p><img src='https:\/\/source.unsplash.com\/featured\/800x500' alt=''><\/p>\n<p>Lorem ipsum dolor sit amet, consectetur adipisicing elit. Amet asperiores aspernatur est expedita facere molestias natus necessitatibus nulla optio perspiciatis, possimus quas quasi repudiandae sit tempora tempore totam vel veritatis?<\/p>\n<p>Lorem ipsum dolor sit amet, consectetur adipisicing elit. Accusamus cumque dicta, dolorum enim eos excepturi explicabo harum hic iste laborum non odit quaerat quia quisquam, quod sapiente sed similique voluptatibus?<\/p>",
            "testimonial": {
                "author": "Madeleine McGowan",
                "role": "Director of Marketing, Communications and Development",
                "content": "Lorem ipsum dolor sit amet, consectetur adipisicing elit. Animi inventore, magni maiores obcaecati provident quibusdam saepe sequi suscipit vel! Et excepturi exercitationem fuga magni quod sed. Cumque ipsum nostrum optio."
            }
        },
        {
            "id": 2,
            "logo": "https:\/\/source.unsplash.com\/featured\/150x150",
            "name": "Client name 2",
            "description": "<!-- Coming from CK Editor -->\n<p><img src='https:\/\/source.unsplash.com\/featured\/800x500' alt=''><\/p>\n<p>Lorem ipsum dolor sit amet, consectetur adipisicing elit. Amet asperiores aspernatur est expedita facere molestias natus necessitatibus nulla optio perspiciatis, possimus quas quasi repudiandae sit tempora tempore totam vel veritatis?<\/p>\n<p>Lorem ipsum dolor sit amet, consectetur adipisicing elit. Accusamus cumque dicta, dolorum enim eos excepturi explicabo harum hic iste laborum non odit quaerat quia quisquam, quod sapiente sed similique voluptatibus?<\/p>",
            "testimonial": {
                "author": "Madeleine McGowan",
                "role": "Director of Marketing, Communications and Development",
                "content": "Lorem ipsum dolor sit amet, consectetur adipisicing elit. Animi inventore, magni maiores obcaecati provident quibusdam saepe sequi suscipit vel! Et excepturi exercitationem fuga magni quod sed. Cumque ipsum nostrum optio."
            }
        },
        {
            "id": 3,
            "logo": "https:\/\/source.unsplash.com\/featured\/150x150",
            "name": "Client name 3",
            "description": "<!-- Coming from CK Editor -->\n<p><img src='https:\/\/source.unsplash.com\/featured\/800x500' alt=''><\/p>\n<p>Lorem ipsum dolor sit amet, consectetur adipisicing elit. Amet asperiores aspernatur est expedita facere molestias natus necessitatibus nulla optio perspiciatis, possimus quas quasi repudiandae sit tempora tempore totam vel veritatis?<\/p>\n<p>Lorem ipsum dolor sit amet, consectetur adipisicing elit. Accusamus cumque dicta, dolorum enim eos excepturi explicabo harum hic iste laborum non odit quaerat quia quisquam, quod sapiente sed similique voluptatibus?<\/p>",
            "testimonial": null
        },
        {
            "id": 4,
            "logo": "https:\/\/source.unsplash.com\/featured\/150x150",
            "name": "Client name 4",
            "description": "<!-- Coming from CK Editor -->\n<p><img src='https:\/\/source.unsplash.com\/featured\/800x500' alt=''><\/p>\n<p>Lorem ipsum dolor sit amet, consectetur adipisicing elit. Amet asperiores aspernatur est expedita facere molestias natus necessitatibus nulla optio perspiciatis, possimus quas quasi repudiandae sit tempora tempore totam vel veritatis?<\/p>\n<p>Lorem ipsum dolor sit amet, consectetur adipisicing elit. Accusamus cumque dicta, dolorum enim eos excepturi explicabo harum hic iste laborum non odit quaerat quia quisquam, quod sapiente sed similique voluptatibus?<\/p>",
            "testimonial": {
                "author": "Madeleine McGowan",
                "role": "Director of Marketing, Communications and Development",
                "content": "Lorem ipsum dolor sit amet, consectetur adipisicing elit. Animi inventore, magni maiores obcaecati provident quibusdam saepe sequi suscipit vel! Et excepturi exercitationem fuga magni quod sed. Cumque ipsum nostrum optio."
            }
        },
        {
            "id": 5,
            "logo": "https:\/\/source.unsplash.com\/featured\/150x150",
            "name": "Client name 4",
            "description": "<!-- Coming from CK Editor -->\n<p><img src='https:\/\/source.unsplash.com\/featured\/800x500' alt=''><\/p>\n<p>Lorem ipsum dolor sit amet, consectetur adipisicing elit. Amet asperiores aspernatur est expedita facere molestias natus necessitatibus nulla optio perspiciatis, possimus quas quasi repudiandae sit tempora tempore totam vel veritatis?<\/p>\n<p>Lorem ipsum dolor sit amet, consectetur adipisicing elit. Accusamus cumque dicta, dolorum enim eos excepturi explicabo harum hic iste laborum non odit quaerat quia quisquam, quod sapiente sed similique voluptatibus?<\/p>",
            "testimonial": {
                "author": "Madeleine McGowan",
                "role": "Director of Marketing, Communications and Development",
                "content": "Lorem ipsum dolor sit amet, consectetur adipisicing elit. Animi inventore, magni maiores obcaecati provident quibusdam saepe sequi suscipit vel! Et excepturi exercitationem fuga magni quod sed. Cumque ipsum nostrum optio."
            }
        },
        {
            "id": 6,
            "logo": "https:\/\/source.unsplash.com\/featured\/150x150",
            "name": "Client name 4",
            "description": "<!-- Coming from CK Editor -->\n<p><img src='https:\/\/source.unsplash.com\/featured\/800x500' alt=''><\/p>\n<p>Lorem ipsum dolor sit amet, consectetur adipisicing elit. Amet asperiores aspernatur est expedita facere molestias natus necessitatibus nulla optio perspiciatis, possimus quas quasi repudiandae sit tempora tempore totam vel veritatis?<\/p>\n<p>Lorem ipsum dolor sit amet, consectetur adipisicing elit. Accusamus cumque dicta, dolorum enim eos excepturi explicabo harum hic iste laborum non odit quaerat quia quisquam, quod sapiente sed similique voluptatibus?<\/p>",
            "testimonial": {
                "author": "Madeleine McGowan",
                "role": "Director of Marketing, Communications and Development",
                "content": "Lorem ipsum dolor sit amet, consectetur adipisicing elit. Animi inventore, magni maiores obcaecati provident quibusdam saepe sequi suscipit vel! Et excepturi exercitationem fuga magni quod sed. Cumque ipsum nostrum optio."
            }
        },
        {
            "id": 7,
            "logo": "https:\/\/source.unsplash.com\/featured\/150x150",
            "name": "Client name 4",
            "description": "<!-- Coming from CK Editor -->\n<p><img src='https:\/\/source.unsplash.com\/featured\/800x500' alt=''><\/p>\n<p>Lorem ipsum dolor sit amet, consectetur adipisicing elit. Amet asperiores aspernatur est expedita facere molestias natus necessitatibus nulla optio perspiciatis, possimus quas quasi repudiandae sit tempora tempore totam vel veritatis?<\/p>\n<p>Lorem ipsum dolor sit amet, consectetur adipisicing elit. Accusamus cumque dicta, dolorum enim eos excepturi explicabo harum hic iste laborum non odit quaerat quia quisquam, quod sapiente sed similique voluptatibus?<\/p>",
            "testimonial": {
                "author": "Madeleine McGowan",
                "role": "Director of Marketing, Communications and Development",
                "content": "Lorem ipsum dolor sit amet, consectetur adipisicing elit. Animi inventore, magni maiores obcaecati provident quibusdam saepe sequi suscipit vel! Et excepturi exercitationem fuga magni quod sed. Cumque ipsum nostrum optio."
            }
        },
        {
            "id": 8,
            "logo": "https:\/\/source.unsplash.com\/featured\/150x150",
            "name": "Client name 4",
            "description": "<!-- Coming from CK Editor -->\n<p><img src='https:\/\/source.unsplash.com\/featured\/800x500' alt=''><\/p>\n<p>Lorem ipsum dolor sit amet, consectetur adipisicing elit. Amet asperiores aspernatur est expedita facere molestias natus necessitatibus nulla optio perspiciatis, possimus quas quasi repudiandae sit tempora tempore totam vel veritatis?<\/p>\n<p>Lorem ipsum dolor sit amet, consectetur adipisicing elit. Accusamus cumque dicta, dolorum enim eos excepturi explicabo harum hic iste laborum non odit quaerat quia quisquam, quod sapiente sed similique voluptatibus?<\/p>",
            "testimonial": {
                "author": "Madeleine McGowan",
                "role": "Director of Marketing, Communications and Development",
                "content": "Lorem ipsum dolor sit amet, consectetur adipisicing elit. Animi inventore, magni maiores obcaecati provident quibusdam saepe sequi suscipit vel! Et excepturi exercitationem fuga magni quod sed. Cumque ipsum nostrum optio."
            }
        }
    ]
}