{
    "title": "IE Brand",
    "subtitle": "We help charity, health and education clients to connect with their audiences.",
    "meta": {
        "title": "IE Brand",
        "description": "We help charity, health and education clients to connect with their audiences.",
        "image": "/logo.png"
    },
    "content": "<h5><small>We're incredibly proud to work with...</small></h5>\n<ul class=\"\">\n<li><a href=\"#\"><img src=\"http://placehold.it/120x80\" alt=\"client\"></a></li>\n<li><a href=\"#\"><img src=\"http://placehold.it/120x80\" alt=\"client\"></a></li>\n<li><a href=\"#\"><img src=\"http://placehold.it/120x80\" alt=\"client\"></a></li>\n<li><a href=\"#\"><img src=\"http://placehold.it/120x80\" alt=\"client\"></a></li>\n</ul>",
    "tiles": {
        "single": [
            {
                "id": 1,
                "title": "Career Ready: Lorem ipsum dolor sit amet.",
                "uri": "/work/career-ready",
                "image": "img/ie-uco.png",
                "category": "Work",
                "excerpt": "Donec id elit non mi porta gravida at eget metus. Fusce dapibus, tellus ac cursus commodo.",
                "client_logo": "https://careerready.org.uk/sites/all/themes/custom/ie_bootstrap_subtheme/img/logo-outline.png",
                "author": null,
                "type": "work",
                "tweaks": {
                    "image_over_text": true,
                    "tile_setting": "single",
                    "box_color": "rgba(0,0,0,0.65)",
                    "title_color": "#ffffff",
                    "text_color": "#ffffff"
                }
            },
            {
                "id": 2,
                "title": "Career Ready: Lorem ipsum dolor sit amet.",
                "uri": "/work/career-ready",
                "image": null,
                "category": "Us",
                "excerpt": "Donec id elit non mi porta gravida at eget metus. Fusce dapibus, tellus ac cursus commodo.",
                "client_logo": null,
                "author": {
                    "image": "http://www.iedesign.co.uk/sites/default/files/styles/staff-avatar/public/pictures/picture-28-1438079227.jpg",
                    "name": "Ed Wilkinson",
                    "role": "Client Services Director"
                },
                "type": "blog",
                "tweaks": {
                    "image_over_text": true,
                    "tile_setting": "single",
                    "box_color": "rgba(0,0,0,0.65)",
                    "title_color": "#ffffff",
                    "text_color": "#ffffff"
                }
            },
            {
                "id": 4,
                "title": "Career Ready: Lorem ipsum dolor sit amet.",
                "uri": "/work/career-ready",
                "image": "https://source.unsplash.com/featured/600x400?nature",
                "category": "Work",
                "excerpt": "Donec id elit non mi porta gravida at eget metus. Fusce dapibus, tellus ac cursus commodo.",
                "client_logo": "https://careerready.org.uk/sites/all/themes/custom/ie_bootstrap_subtheme/img/logo-outline.png",
                "author": null,
                "type": "work",
                "tweaks": {
                    "image_over_text": true,
                    "tile_setting": "single",
                    "box_color": "#aaaaaa",
                    "title_color": "#ffffff",
                    "text_color": "#bbbbbb"
                }
            },
            {
                "id": 5,
                "title": "University of Osteopathy: Lorem ipsum dolor sit amet como.",
                "uri": "/work/bso",
                "image": null,
                "category": "Charity",
                "excerpt": "Donec id elit non mi porta gravida at eget metus. Fusce dapibus, tellus ac cursus commodo.",
                "client_logo": null,
                "author": {
                    "image": "http://www.iedesign.co.uk/sites/default/files/styles/staff-avatar/public/pictures/picture-28-1438079227.jpg",
                    "name": "Ed Wilkinson",
                    "role": "Client Services Director"
                },
                "type": "blog",
                "tweaks": {
                    "image_over_text": true,
                    "tile_setting": "single",
                    "box_color": "#000000",
                    "title_color": "#ffffff",
                    "text_color": "#dddddd"
                }
            },
            {
                "id": 6,
                "title": "Career Ready: Lorem ipsum dolor sit amet.",
                "uri": "/work/career-ready",
                "image": "https://source.unsplash.com/featured/600x400?nature",
                "category": "Work",
                "excerpt": "Donec id elit non mi porta gravida at eget metus. Fusce dapibus, tellus ac cursus commodo.",
                "client_logo": "https://careerready.org.uk/sites/all/themes/custom/ie_bootstrap_subtheme/img/logo-outline.png",
                "author": null,
                "type": "work",
                "tweaks": {
                    "image_over_text": true,
                    "tile_setting": "single",
                    "box_color": "#aaaaaa",
                    "title_color": "#ffffff",
                    "text_color": "#bbbbbb"
                }
            }
        ],
        "double": [
            {
                "id": 3,
                "title": "University of Osteopathy: Lorem ipsum dolor sit amet como.",
                "uri": "/work/bso",
                "image": "img/ie-food.png",
                "category": "Blog",
                "excerpt": "Donec id elit non mi porta gravida at eget metus. Fusce dapibus, tellus ac cursus commodo.",
                "client_logo": null,
                "author": {
                    "image": "http://www.iedesign.co.uk/sites/default/files/styles/staff-avatar/public/pictures/picture-28-1438079227.jpg",
                    "name": "Ed Wilkinson",
                    "role": "Client Services Director"
                },
                "type": "blog",
                "tweaks": {
                    "image_over_text": true,
                    "tile_setting": "double-vertical",
                    "box_color": "#804f8b",
                    "title_color": "#f6e2d4",
                    "text_color": "#cdce77"
                }
            },
            {
                "id": 9,
                "title": "University of Osteopathy: Lorem ipsum dolor sit amet como.",
                "uri": "/work/bso",
                "image": "https://source.unsplash.com/featured/600x400?nature",
                "category": "Blog",
                "excerpt": "Donec id elit non mi porta gravida at eget metus. Fusce dapibus, tellus ac cursus commodo.",
                "client_logo": null,
                "author": {
                    "image": "http://www.iedesign.co.uk/sites/default/files/styles/staff-avatar/public/pictures/picture-28-1438079227.jpg",
                    "name": "Ed Wilkinson",
                    "role": "Client Services Director"
                },
                "type": "blog",
                "tweaks": {
                    "image_over_text": true,
                    "tile_setting": "double-vertical",
                    "box_color": "#000000",
                    "title_color": "#ffffff",
                    "text_color": "#dddddd"
                }
            }
        ]
    }
}