{
    "title": "And us",
    "subtitle": "The agency",
    "meta": {
        "title": "IE Brand",
        "description": "We help charity, health and education clients to connect with their audiences.",
        "image": "/logo.png"
    },
    "content": {
        "top_banner": "https://source.unsplash.com/featured/2400x650?office",
        "bottom_banner": null,
        "sections": {
            "do": {
                "title": "What we do",
                "type": "normal",
                "key": "do",
                "content": "<p class='lead'>Lorem ipsum dolor sit amet, consectetur adipisicing elit. Architecto at autem blanditiis dignissimos doloremque doloribus et eveniet excepturi facilis ipsam magni minus possimus quaerat recusandae, repellendus saepe suscipit. Fugiat, ipsum.</p>\n<p>Lorem ipsum dolor sit amet, consectetur adipisicing elit. Assumenda beatae consequuntur cum eaque, earum ex facilis laboriosam modi molestiae nemo numquam officiis omnis repellat rerum voluptatibus! Cum eius incidunt quam? Fugiat, ipsum.</p>\n<p>Lorem ipsum dolor sit amet, consectetur adipisicing elit. Assumenda beatae consequuntur cum eaque, earum ex facilis laboriosam modi molestiae nemo numquam officiis omnis repellat rerum voluptatibus! Fugiat, ipsum.</p>\n<p>Lorem ipsum dolor sit amet, consectetur adipisicing elit. Assumenda beatae consequuntur cum eaque, earum ex facilis laboriosam modi molestiae nemo numquam officiis omnis repellat rerum voluptatibus!</p>",
                "side": {
                    "content": null,
                    "iframe": "https://www.youtube.com/embed/J8eu8HQYDmc"
                }
            },
            "story": {
                "title": "Our story",
                "type": "normal",
                "key": "story",
                "content": "<p class='lead'>Lorem ipsum dolor sit amet, consectetur adipisicing elit. Architecto at autem blanditiis dignissimos doloremque doloribus et eveniet excepturi facilis ipsam magni minus possimus quaerat recusandae, repellendus saepe suscipit. Fugiat, ipsum.</p>\n<p>Lorem ipsum dolor sit amet, consectetur adipisicing elit. Assumenda beatae consequuntur cum eaque, earum ex facilis laboriosam modi molestiae nemo numquam officiis omnis repellat rerum voluptatibus! Cum eius incidunt quam? Lorem ipsum dolor sit amet, consectetur adipisicing elit. Architecto at autem blanditiis dignissimos doloremque doloribus et eveniet excepturi facilis ipsam magni minus possimus quaerat recusandae, repellendus saepe suscipit. Fugiat, ipsum.</p>\n<p>Lorem ipsum dolor sit amet, consectetur adipisicing elit. Lorem ipsum dolor sit amet, consectetur adipisicing elit. A aspernatur at delectus dolore facere hic, in, ipsa mollitia nam provident quaerat, quasi quos reiciendis tempore voluptas. Doloremque nesciunt odit repellendus?</p>",
                "side": {
                    "content": "<h4>Our trophy cabinet</h4><img src='http://placehold.it/80x50' alt=''><img src='http://placehold.it/80x50' alt=''><img src='http://placehold.it/80x50' alt=''>",
                    "iframe": null
                }
            },
            "careers": {
                "title": "Careers",
                "type": "normal",
                "key": "careers",
                "content": "<p class='lead'>Lorem ipsum dolor sit amet, consectetur adipisicing elit. Architecto at autem blanditiis dignissimos doloremque doloribus et eveniet excepturi facilis ipsam magni minus possimus quaerat recusandae, repellendus saepe suscipit. Fugiat, ipsum.</p>\n<p>Lorem ipsum dolor sit amet, consectetur adipisicing elit. Assumenda beatae consequuntur cum eaque, earum ex facilis laboriosam modi molestiae nemo numquam officiis omnis repellat rerum voluptatibus! Cum eius incidunt quam?</p>\n<p>Lorem ipsum dolor sit amet, consectetur adipisicing elit. A aspernatur at delectus dolore facere hic, in, ipsa mollitia nam provident quaerat, quasi quos reiciendis tempore voluptas. Doloremque nesciunt odit repellendus?</p></div>",
                "side": {
                    "content": "<img class='img-responsive' src='https://source.unsplash.com/featured/800x500?cold' alt=''>",
                    "iframe": null
                }
            },
            "team": {
                "title": "The team",
                "type": "source",
                "key": "team",
                "source": "data/team.json"
            },
            "vacancies": {
                "title": "Vacancies",
                "type": "source",
                "key": "vacancies",
                "source": "data/vacancies.json"
            }
        }
    },
    "images": [
        "https://source.unsplash.com/featured/675x400?office",
        "https://source.unsplash.com/featured/380x400?office",
        "https://source.unsplash.com/featured/380x400?office"
    ]
}