{
    "title": "Work",
    "subtitle": "Featured projects",
    "meta": {
        "title": "IE Brand",
        "description": "We help charity, health and education clients to connect with their audiences.",
        "image": "/logo.png"
    },
    "tiles": {
        "single": [
            {
                "id": 1,
                "title": "University of Osteopathy: Lorem ipsum dolor sit amet como.",
                "slug": "bso",
                "image": "img\/ie-uco.png",
                "category": "Work",
                "excerpt": "Donec id elit non mi porta gravida at eget metus. Fusce dapibus, tellus ac cursus commodo. Id elit non mi porta gravida at eget metus.",
                "client_logo": "https:\/\/careerready.org.uk\/sites\/all\/themes\/custom\/ie_bootstrap_subtheme\/img\/logo-outline.png",
                "tweaks": {
                    "image_over_text": true,
                    "tile_setting": "single",
                    "box_color": "rgba(0, 0, 0, 0.65)",
                    "title_color": "#ffffff",
                    "text_color": "#ffffff"
                }
            },
            {
                "id": 2,
                "title": "Career Ready: Lorem ipsum dolor sit amet.",
                "slug": "career-ready",
                "image": "img\/ie-food.png",
                "category": "Work",
                "excerpt": "Donec id elit non mi porta gravida at eget metus. Fusce dapibus, tellus ac cursus commodo.",
                "client_logo": "https:\/\/careerready.org.uk\/sites\/all\/themes\/custom\/ie_bootstrap_subtheme\/img\/logo-outline.png",
                "tweaks": {
                    "image_over_text": true,
                    "tile_setting": "single",
                    "box_color": "rgba(0,0,0,0.65)",
                    "title_color": "#ffffff",
                    "text_color": "#ffffff"
                }
            },
            {
                "id": 3,
                "title": "University of Osteopathy: Lorem ipsum dolor sit amet como.",
                "slug": "bso",
                "image": "https:\/\/source.unsplash.com\/featured\/600x400?university",
                "category": "Work",
                "excerpt": "Donec id elit non mi porta gravida at eget metus. Fusce dapibus, tellus ac cursus commodo.",
                "client_logo": "https:\/\/careerready.org.uk\/sites\/all\/themes\/custom\/ie_bootstrap_subtheme\/img\/logo-outline.png",
                "tweaks": {
                    "image_over_text": true,
                    "tile_setting": "single",
                    "box_color": "#000000",
                    "title_color": "#ffffff",
                    "text_color": "#dddddd"
                }
            },
            {
                "id": 4,
                "title": "Career Ready: Lorem ipsum dolor sit amet.",
                "slug": "career-ready",
                "image": "https:\/\/source.unsplash.com\/featured\/600x400?nature",
                "category": "Work",
                "excerpt": "Donec id elit non mi porta gravida at eget metus. Fusce dapibus, tellus ac cursus commodo.",
                "client_logo": "https:\/\/careerready.org.uk\/sites\/all\/themes\/custom\/ie_bootstrap_subtheme\/img\/logo-outline.png",
                "tweaks": {
                    "image_over_text": true,
                    "tile_setting": "single",
                    "box_color": "#aaaaaa",
                    "title_color": "#ffffff",
                    "text_color": "#ffffff"
                }
            },
            {
                "id": 5,
                "title": "Career Ready: Lorem ipsum dolor sit amet.",
                "slug": "career-ready",
                "image": "https:\/\/source.unsplash.com\/featured\/600x400?nature",
                "category": "Work",
                "excerpt": "Donec id elit non mi porta gravida at eget metus. Fusce dapibus, tellus ac cursus commodo.",
                "client_logo": "https:\/\/careerready.org.uk\/sites\/all\/themes\/custom\/ie_bootstrap_subtheme\/img\/logo-outline.png",
                "tweaks": {
                    "image_over_text": true,
                    "tile_setting": "single",
                    "box_color": "#aaaaaa",
                    "title_color": "#ffffff",
                    "text_color": "#ffffff"
                }
            },
            {
                "id": 6,
                "title": "Career Ready: Lorem ipsum dolor sit amet.",
                "slug": "career-ready",
                "image": "https:\/\/source.unsplash.com\/featured\/600x400?technology",
                "category": "Work",
                "excerpt": "Donec id elit non mi porta gravida at eget metus. Fusce dapibus, tellus ac cursus commodo.",
                "client_logo": "https:\/\/careerready.org.uk\/sites\/all\/themes\/custom\/ie_bootstrap_subtheme\/img\/logo-outline.png",
                "tweaks": {
                    "image_over_text": true,
                    "tile_setting": "single",
                    "box_color": "#aaaaaa",
                    "title_color": "#ffffff",
                    "text_color": "#ffffff"
                }
            }
        ]
    }
}